\contentsline {section}{Inleiding}{2}
\contentsline {section}{Probleem 1}{8}
\contentsline {section}{Probleem 2}{9}
\contentsline {section}{Probleem 3}{10}
\contentsline {section}{Probleem 4}{11}
\contentsline {section}{Probleem 5}{12}
\contentsline {section}{Probleem 6}{13}
