\relax 
\@writefile{toc}{\contentsline {section}{Inleiding}{2}}
\@writefile{lol}{\contentsline {lstlisting}{../src/gna/Stitcher.java}{2}}
\@writefile{lol}{\contentsline {lstlisting}{../src/gna/Stitcher.java}{4}}
\@writefile{lol}{\contentsline {lstlisting}{../src/gna/Stitcher.java}{5}}
\@writefile{toc}{\contentsline {section}{Probleem 1}{8}}
\@writefile{toc}{\contentsline {section}{Probleem 2}{9}}
\@writefile{toc}{\contentsline {section}{Probleem 3}{10}}
\@writefile{toc}{\contentsline {section}{Probleem 4}{11}}
\@writefile{toc}{\contentsline {section}{Probleem 5}{12}}
\@writefile{toc}{\contentsline {section}{Probleem 6}{13}}
\newlabel{LastPage}{{}{13}}
\xdef\lastpage@lastpage{13}
\gdef\lastpage@lastpageHy{}
